        1+-----------+0+---------+2
               3      +    4 (77cm from end of bend) bend radius 12cm
                      |
                      |
                      |
                      |2(149cm))
                      |
                      |
                      |
          0 (88cm)    +          1
3+-------------------+4--------------------+5
(0,0)



LEG 9 UNUSED